{
  "manifest_version": 3,
  "name": "Video Capture",
  "version": "1.1",
  "description": "Capture screen and download.",
  "icons": {
    "48": "icons/favorite.png"
  },
  "permissions": [],
  "action": {
    "default_icon": "icons/favorite.png",
    "default_title": "Video Capture"
  },
  "background": {
    "service_worker": "background-script.js"
  }
}
